﻿[
	{
		"_id": "co-05",
		"_parentId": "course",
		"_type": "page",
		"_classes": "",
		"title": "نظرة عامة",
		"displayTitle": "نظرة عامة",
		"pageBody": "تعرف على كيفية تحسين إعلانات تجميع بيانات العملاء المحتملين للحملات الإعلانية التي تهدف إلى اكتساب عملاء جدد من خلال توفير طريقة سهلة لجمهورك المستهدف لإرسال معلوماته إليك.",
		"body": "تعرف على كيفية تحسين إعلانات تجميع بيانات العملاء المحتملين للحملات الإعلانية التي تهدف إلى اكتساب عملاء جدد من خلال توفير طريقة سهلة لجمهورك المستهدف لإرسال معلوماته إليك.",
		"_graphic": {
			"src": "course/en/images/contentObjects/01_overview_lead_ads.png",
			"alt": "نظرة عامة"
		},
		"linkText": "عرض",
		"height" : "570",
		"durationLabel": "المدة:",
		"duration": "3 دقائق",
		"_pageLevelProgress": {
			"_isEnabled": true
		},
		"_bookmarking": {
	    "_isEnabled": true,
	    "_level": "component"
		}
	},
	{
		"_id": "co-10",
		"_parentId": "course",
		"_type": "page",
		"_classes": "",
		"title": "مزايا إعلانات تجميع بيانات العملاء المحتملين",
		"displayTitle": "مزايا إعلانات تجميع بيانات العملاء المحتملين",
		"pageBody": "سنوضح الدور الذي تلعبه إعلانات تجميع بيانات العملاء المحتملين في مساعدتك أنت وعملائك.",
		"body": "سنوضح الدور الذي تلعبه إعلانات تجميع بيانات العملاء المحتملين في مساعدتك أنت وعملائك.",
		"_graphic": {
			"src": "course/en/images/contentObjects/02_get_more_leads.png",
			"alt": ""
		},
		"linkText": "عرض",
		"height" : "570",
		"durationLabel": "المدة:",
		"duration": "4 دقائق",
		"_pageLevelProgress": {
			"_isEnabled": true
		},
		"_bookmarking": {
	    "_isEnabled": true,
	    "_level": "component"
		}
	},
	{
		"_id": "co-15",
		"_parentId": "course",
		"_type": "page",
		"_classes": "",
		"title": " الوصول إلى بيانات العملاء المحتملين",
		"displayTitle": "الوصول إلى بيانات العملاء المحتملين",
		"pageBody": "يمكن تنزيل بيانات العملاء المحتملين الناتجة عن إعلانات تجميع هذا النوع من البيانات كما يمكن مزامنتها مع نظام إدارة بيانات العملاء الذي تستخدمه في الوقت الفعلي. تعرف على الخيارات المتعددة للوصول إلى بيانات العملاء المحتملين.",
		"body": "يمكن تنزيل بيانات العملاء المحتملين الناتجة عن إعلانات تجميع هذا النوع من البيانات كما يمكن مزامنتها مع نظام إدارة بيانات العملاء الذي تستخدمه في الوقت الفعلي. تعرف على الخيارات المتعددة للوصول إلى بيانات العملاء المحتملين.",
		"_graphic": {
			"src": "course/en/images/contentObjects/04_data_collection.png",
			"alt": "عنصر نائب لصورة."
		},
		"linkText": "عرض",
		"height" : "570",
		"durationLabel": "المدة:",
		"duration": "4 دقائق",
		"_pageLevelProgress": {
			"_isEnabled": true
		},
		"_bookmarking": {
	    "_isEnabled": true,
	    "_level": "component"
		}
	},
	{
        "_id": "co-16",
		"_parentId": "course",
		"_type": "page",
		"_classes": "",
		"title": " عمليات التكامل مع أنظمة إدارة بيانات العملاء",
		"displayTitle": "عمليات التكامل مع أنظمة إدارة بيانات العملاء",
		"pageBody": "تعرف على كيفية تنفيذ التكامل بين نظام إدارة بيانات العملاء لديك وحملات تجميع بيانات العملاء المحتملين على فيسبوك، سواءً من خلال إجراء التكامل مباشرةً أو عبر جهة خارجية.",
		"body": "تعرف على كيفية تنفيذ التكامل بين نظام إدارة بيانات العملاء لديك وحملات تجميع بيانات العملاء المحتملين على فيسبوك، سواءً من خلال إجراء التكامل مباشرةً أو عبر جهة خارجية.",
		"_graphic": {
			"src": "course/en/images/contentObjects/integration.png",
			"alt": "عنصر نائب لصورة."
		},
		"linkText": "عرض",
		"height" : "570",
		"durationLabel": "المدة:",
		"duration": "دقيقتان",
		"_pageLevelProgress": {
			"_isEnabled": true
		},
		"_bookmarking": {
	    "_isEnabled": true,
	    "_level": "component"
		}
	},
	{
		"_id": "co-20",
		"_parentId": "course",
		"_type": "page",
		"_classes": "",
		"title": "أفضل الممارسات",
		"displayTitle": "أفضل الممارسات",
		"pageBody": "حقق أقصى استفادة من إعلانات تجميع بيانات العملاء المحتملين باتباع مجموعة من أفضل الممارسات.",
		"body": "<br>حقق أقصى استفادة من إعلانات تجميع بيانات العملاء المحتملين باتباع مجموعة من أفضل الممارسات.",
		"_graphic": {
			"src": "course/en/images/contentObjects/03_make_the_most.png",
			"alt": "عنصر نائب لصورة."
		},
		"linkText": "عرض",
		"height" : "570",
		"durationLabel": "المدة:",
		"duration": "6 دقائق",
		"_pageLevelProgress": {
			"_isEnabled": true
		},
		"_bookmarking": {
	    "_isEnabled": true,
	    "_level": "component"
		}
	},
	{
		"_id": "co-25",
		"_parentId": "course",
		"_type": "page",
		"_classes": "",
		"title": "قصة نجاح خمس شركات في زيادة الاستفسارات عن خدماتها ومنتجاتها على فيسبوك",
		"displayTitle": "قصة نجاح خمس شركات في زيادة الاستفسارات عن خدماتها ومنتجاتها على فيسبوك",
		"pageBody": "تعرف على كيفية استخدام الشركات بمختلف تخصصاتها لإعلانات تجميع بيانات العملاء المحتملين لتقديم المزيد من المعلومات للعملاء بسهولة.",
		"body": "تعرف على كيفية استخدام الشركات بمختلف تخصصاتها لإعلانات تجميع بيانات العملاء المحتملين لتقديم المزيد من المعلومات للعملاء بسهولة.",
		"_graphic": {
			"src": "course/en/images/contentObjects/05_case_studies.png",
			"alt": "عنصر نائب لصورة."
		},
		"linkText": "عرض",
		"height" : "570",
		"durationLabel": "المدة:",
		"duration": "5 دقائق",
		"_pageLevelProgress": {
			"_isEnabled": true
		},
		"_bookmarking": {
	    "_isEnabled": true,
	    "_level": "component"
		}
	},
	{
		"_id": "co-30",
		"_parentId": "course",
		"_type": "page",
		"_classes": "",
		"title": "دليل تفصيلي",
		"displayTitle": "دليل تفصيلي",
		"pageBody": "اتبع هذه الخطوات لإنشاء إعلانات تجميع بيانات العملاء المحتملين وقياس أدائها.",
		"body": "اتبع هذه الخطوات لإنشاء إعلانات تجميع بيانات العملاء المحتملين وقياس أدائها.",
		"_graphic": {
			"src": "course/en/images/contentObjects/06_step_by_step.png",
			"alt": "عنصر نائب لصورة."
		},
		"linkText": "عرض",
		"height" : "570",
		"durationLabel": "المدة:",
		"duration": "8 دقائق",
		"_pageLevelProgress": {
			"_isEnabled": true
		},
		"_bookmarking": {
	    "_isEnabled": true,
	    "_level": "component"
		}
	},
	{
		"_id": "co-35",
		"_parentId": "course",
		"_type": "page",
		"_classes": "",
		"title": "اختبار مستوى المعرفة",
		"displayTitle": "اختبار مستوى المعرفة",
		"pageBody": "لنراجع سريعًا كل ما تعلمته في هذه الدورة التدريبية.",
		"body": "لنراجع سريعًا كل ما تعلمته في هذه الدورة التدريبية.",
		"_graphic": {
			"src": "course/en/images/contentObjects/07_recap.png",
			"alt": "عنصر نائب لصورة."
		},
		"linkText": "عرض",
		"height" : "570",
		"durationLabel": "المدة:",
		"duration": "3 دقائق",
		"_pageLevelProgress": {
			"_isEnabled": true
		},
		"_bookmarking": {
	    "_isEnabled": true,
	    "_level": "component"
		}
	}
	
	
]
